.ee109_old/moduleSims/test.vcd
$date
	Sat May 13 22:36:43 2017
$end
$version
	Icarus Verilog
$end
$timescale
	1ps
$end
$scope module Computer_System_Expansion_JP1_tb $end
$scope module jp1 $end
$var wire 2 ! address [1:0] $end
$var wire 32 " bidir_port [31:0] $end
$var wire 1 # chipselect $end
$var wire 1 $ clk $end
$var wire 1 % clk_en $end
$var wire 32 & data_in [31:0] $end
$var wire 1 ' edge_capture_wr_strobe $end
$var wire 32 ( edge_detect [31:0] $end
$var wire 1 ) irq $end
$var wire 32 * read_mux_out [31:0] $end
$var wire 1 + reset_n $end
$var wire 1 , write_n $end
$var wire 32 - writedata [31:0] $end
$var reg 32 . d1_data_in [31:0] $end
$var reg 32 / d2_data_in [31:0] $end
$var reg 32 0 data_dir [31:0] $end
$var reg 32 1 data_out [31:0] $end
$var reg 32 2 edge_capture [31:0] $end
$var reg 32 3 irq_mask [31:0] $end
$var reg 32 4 readdata [31:0] $end
$upscope $end
$upscope $end
$enddefinitions $end
#0
$dumpvars
bx 4
bx 3
bx 2
bx 1
bx 0
bx /
bx .
bx -
0,
1+
bx *
x)
bx (
x'
bx &
1%
0$
1#
bx "
bx !
$end
#5000
1$
#10000
bz "
bz &
b0 (
0)
b0 /
b0 .
b0 2
b0 3
b0 0
b0 1
b0 4
0$
0+
#15000
b0 2
1$
#20000
0$
1+
#25000
bz .
bx 4
1$
#30000
0$
#35000
bx (
bz /
1$
#40000
0$
#45000
1$
#50000
0$
#55000
1$
#60000
0$
#65000
1$
#70000
b0 *
0'
0$
b11111111111111111111111111111111 -
b1 !
#75000
b11111111111111111111111111111111 *
b0 "
b0 &
b0 4
b11111111111111111111111111111111 0
1$
#80000
b0 *
0$
b1111111111 -
b0 !
#85000
b1111111111 *
b1111111111 "
b1111111111 &
b0 .
b1111111111 1
1$
#90000
0$
#95000
b0 (
b1111111111 4
b0 /
b1111111111 .
1$
#100000
0$
#105000
b1111111111 /
1$
#110000
0$
b10001100011 -
#115000
b10001100011 *
b10001100011 "
b10001100011 &
b10001100011 1
1$
#120000
0$
#125000
b1110011100 (
b10001100011 .
b10001100011 4
1$
#130000
0$
#135000
b0 (
b1110011100 2
b10001100011 /
1$
#140000
0$
b10001100000 -
#145000
b10001100000 *
b10001100000 "
b10001100000 &
b10001100000 1
1$
#150000
0$
#155000
b11 (
b10001100000 4
b10001100000 .
1$
#160000
0$
#165000
b0 (
b10001100000 /
b1110011111 2
1$
