spatial/core/resources/chiselgen/template-level/test_run_dir/templates.Launcher774687186/Counter.vcd
$version Generated by VerilatedVcd $end
$date Wed Apr  5 17:59:35 2017
 $end
$timescale 1ns $end

 $scope module TOP $end
  $var wire  1 ? clock $end
  $var wire  1 N io_input_enable $end
  $var wire 32 J io_input_gaps_0 [31:0] $end
  $var wire 32 K io_input_gaps_1 [31:0] $end
  $var wire 32 L io_input_gaps_2 [31:0] $end
  $var wire  1 P io_input_isStream $end
  $var wire 32 D io_input_maxes_0 [31:0] $end
  $var wire 32 E io_input_maxes_1 [31:0] $end
  $var wire 32 F io_input_maxes_2 [31:0] $end
  $var wire  1 M io_input_reset $end
  $var wire  1 O io_input_saturate $end
  $var wire 32 A io_input_starts_0 [31:0] $end
  $var wire 32 B io_input_starts_1 [31:0] $end
  $var wire 32 C io_input_starts_2 [31:0] $end
  $var wire 32 G io_input_strides_0 [31:0] $end
  $var wire 32 H io_input_strides_1 [31:0] $end
  $var wire 32 I io_input_strides_2 [31:0] $end
  $var wire 32 Q io_output_counts_0 [31:0] $end
  $var wire 32 R io_output_counts_1 [31:0] $end
  $var wire 32 S io_output_counts_2 [31:0] $end
  $var wire  1 T io_output_done $end
  $var wire  1 U io_output_extendedDone $end
  $var wire  1 V io_output_saturated $end
  $var wire  1 @ reset $end
  $scope module v $end
   $var wire  1 ? clock $end
   $var wire  1 ? ctrs_0_clock $end
   $var wire  1 % ctrs_0_io_input_enable $end
   $var wire 32 [ ctrs_0_io_input_gap [31:0] $end
   $var wire 32 D ctrs_0_io_input_max [31:0] $end
   $var wire  1 M ctrs_0_io_input_reset $end
   $var wire  1 O ctrs_0_io_input_saturate $end
   $var wire 32 A ctrs_0_io_input_start [31:0] $end
   $var wire 32 G ctrs_0_io_input_stride [31:0] $end
   $var wire 32 W ctrs_0_io_output_countWithoutWrap_0 [31:0] $end
   $var wire 32 & ctrs_0_io_output_count_0 [31:0] $end
   $var wire  1 ' ctrs_0_io_output_done $end
   $var wire  1 # ctrs_0_io_output_extendedDone $end
   $var wire  1 ( ctrs_0_io_output_saturated $end
   $var wire  1 @ ctrs_0_reset $end
   $var wire  1 ? ctrs_1_clock $end
   $var wire  1 ) ctrs_1_io_input_enable $end
   $var wire 32 [ ctrs_1_io_input_gap [31:0] $end
   $var wire 32 E ctrs_1_io_input_max [31:0] $end
   $var wire  1 M ctrs_1_io_input_reset $end
   $var wire  1 * ctrs_1_io_input_saturate $end
   $var wire 32 B ctrs_1_io_input_start [31:0] $end
   $var wire 32 H ctrs_1_io_input_stride [31:0] $end
   $var wire 32 X ctrs_1_io_output_countWithoutWrap_0 [31:0] $end
   $var wire 32 + ctrs_1_io_output_count_0 [31:0] $end
   $var wire  1 , ctrs_1_io_output_done $end
   $var wire  1 $ ctrs_1_io_output_extendedDone $end
   $var wire  1 - ctrs_1_io_output_saturated $end
   $var wire  1 @ ctrs_1_reset $end
   $var wire  1 ? ctrs_2_clock $end
   $var wire  1 N ctrs_2_io_input_enable $end
   $var wire 32 [ ctrs_2_io_input_gap [31:0] $end
   $var wire 32 F ctrs_2_io_input_max [31:0] $end
   $var wire  1 M ctrs_2_io_input_reset $end
   $var wire  1 . ctrs_2_io_input_saturate $end
   $var wire 32 C ctrs_2_io_input_start [31:0] $end
   $var wire 32 I ctrs_2_io_input_stride [31:0] $end
   $var wire 32 Y ctrs_2_io_output_countWithoutWrap_0 [31:0] $end
   $var wire 32 / ctrs_2_io_output_count_0 [31:0] $end
   $var wire  1 0 ctrs_2_io_output_done $end
   $var wire  1 Z ctrs_2_io_output_extendedDone $end
   $var wire  1 1 ctrs_2_io_output_saturated $end
   $var wire  1 @ ctrs_2_reset $end
   $var wire  1 N io_input_enable $end
   $var wire 32 J io_input_gaps_0 [31:0] $end
   $var wire 32 K io_input_gaps_1 [31:0] $end
   $var wire 32 L io_input_gaps_2 [31:0] $end
   $var wire  1 P io_input_isStream $end
   $var wire 32 D io_input_maxes_0 [31:0] $end
   $var wire 32 E io_input_maxes_1 [31:0] $end
   $var wire 32 F io_input_maxes_2 [31:0] $end
   $var wire  1 M io_input_reset $end
   $var wire  1 O io_input_saturate $end
   $var wire 32 A io_input_starts_0 [31:0] $end
   $var wire 32 B io_input_starts_1 [31:0] $end
   $var wire 32 C io_input_starts_2 [31:0] $end
   $var wire 32 G io_input_strides_0 [31:0] $end
   $var wire 32 H io_input_strides_1 [31:0] $end
   $var wire 32 I io_input_strides_2 [31:0] $end
   $var wire 32 Q io_output_counts_0 [31:0] $end
   $var wire 32 R io_output_counts_1 [31:0] $end
   $var wire 32 S io_output_counts_2 [31:0] $end
   $var wire  1 T io_output_done $end
   $var wire  1 U io_output_extendedDone $end
   $var wire  1 V io_output_saturated $end
   $var wire  1 2 isDone $end
   $var wire  1 3 isSaturated $end
   $var wire  1 @ reset $end
   $var wire  1 : wasDone $end
   $var wire  1 ; wasWasDone $end
   $scope module ctrs_0 $end
    $var wire  1 ? FF_clock $end
    $var wire 32 4 FF_io_input_data [31:0] $end
    $var wire  1 5 FF_io_input_enable $end
    $var wire 32 A FF_io_input_init [31:0] $end
    $var wire  1 M FF_io_input_reset $end
    $var wire 32 & FF_io_output_data [31:0] $end
    $var wire  1 @ FF_reset $end
    $var wire  1 ? clock $end
    $var wire  1 % io_input_enable $end
    $var wire 32 [ io_input_gap [31:0] $end
    $var wire 32 D io_input_max [31:0] $end
    $var wire  1 M io_input_reset $end
    $var wire  1 O io_input_saturate $end
    $var wire 32 A io_input_start [31:0] $end
    $var wire 32 G io_input_stride [31:0] $end
    $var wire 32 W io_output_countWithoutWrap_0 [31:0] $end
    $var wire 32 & io_output_count_0 [31:0] $end
    $var wire  1 ' io_output_done $end
    $var wire  1 # io_output_extendedDone $end
    $var wire  1 ( io_output_saturated $end
    $var wire  1 @ reset $end
    $scope module FF $end
     $var wire  1 ? clock $end
     $var wire 32 < ff [31:0] $end
     $var wire 32 4 io_input_data [31:0] $end
     $var wire  1 5 io_input_enable $end
     $var wire 32 A io_input_init [31:0] $end
     $var wire  1 M io_input_reset $end
     $var wire 32 & io_output_data [31:0] $end
     $var wire  1 @ reset $end
    $upscope $end
   $upscope $end
   $scope module ctrs_1 $end
    $var wire  1 ? FF_clock $end
    $var wire 32 6 FF_io_input_data [31:0] $end
    $var wire  1 7 FF_io_input_enable $end
    $var wire 32 B FF_io_input_init [31:0] $end
    $var wire  1 M FF_io_input_reset $end
    $var wire 32 + FF_io_output_data [31:0] $end
    $var wire  1 @ FF_reset $end
    $var wire  1 ? clock $end
    $var wire  1 ) io_input_enable $end
    $var wire 32 [ io_input_gap [31:0] $end
    $var wire 32 E io_input_max [31:0] $end
    $var wire  1 M io_input_reset $end
    $var wire  1 * io_input_saturate $end
    $var wire 32 B io_input_start [31:0] $end
    $var wire 32 H io_input_stride [31:0] $end
    $var wire 32 X io_output_countWithoutWrap_0 [31:0] $end
    $var wire 32 + io_output_count_0 [31:0] $end
    $var wire  1 , io_output_done $end
    $var wire  1 $ io_output_extendedDone $end
    $var wire  1 - io_output_saturated $end
    $var wire  1 @ reset $end
    $scope module FF $end
     $var wire  1 ? clock $end
     $var wire 32 = ff [31:0] $end
     $var wire 32 6 io_input_data [31:0] $end
     $var wire  1 7 io_input_enable $end
     $var wire 32 B io_input_init [31:0] $end
     $var wire  1 M io_input_reset $end
     $var wire 32 + io_output_data [31:0] $end
     $var wire  1 @ reset $end
    $upscope $end
   $upscope $end
   $scope module ctrs_2 $end
    $var wire  1 ? FF_clock $end
    $var wire 32 8 FF_io_input_data [31:0] $end
    $var wire  1 9 FF_io_input_enable $end
    $var wire 32 C FF_io_input_init [31:0] $end
    $var wire  1 M FF_io_input_reset $end
    $var wire 32 / FF_io_output_data [31:0] $end
    $var wire  1 @ FF_reset $end
    $var wire  1 ? clock $end
    $var wire  1 N io_input_enable $end
    $var wire 32 [ io_input_gap [31:0] $end
    $var wire 32 F io_input_max [31:0] $end
    $var wire  1 M io_input_reset $end
    $var wire  1 . io_input_saturate $end
    $var wire 32 C io_input_start [31:0] $end
    $var wire 32 I io_input_stride [31:0] $end
    $var wire 32 Y io_output_countWithoutWrap_0 [31:0] $end
    $var wire 32 / io_output_count_0 [31:0] $end
    $var wire  1 0 io_output_done $end
    $var wire  1 Z io_output_extendedDone $end
    $var wire  1 1 io_output_saturated $end
    $var wire  1 @ reset $end
    $scope module FF $end
     $var wire  1 ? clock $end
     $var wire 32 > ff [31:0] $end
     $var wire 32 8 io_input_data [31:0] $end
     $var wire  1 9 io_input_enable $end
     $var wire 32 C io_input_init [31:0] $end
     $var wire  1 M io_input_reset $end
     $var wire 32 / io_output_data [31:0] $end
     $var wire  1 @ reset $end
    $upscope $end
   $upscope $end
  $upscope $end
 $upscope $end
$enddefinitions $end


#0
0#
0$
0%
0'
0(
0)
0*
0,
0-
0.
00
01
02
03
b00000000000000000000000000000000 4
05
b00000000000000000000000000000000 &
b00000000000000000000000000000000 6
07
b00000000000000000000000000000000 +
b00000000000000000000000000000000 8
09
b00000000000000000000000000000000 /
0:
0;
b00000000000000000000000000000000 <
b00000000000000000000000000000000 =
b00000000000000000000000000000000 >
b00000000000000000000000000000000 J
b00000000000000000000000000000000 K
b00000000000000000000000000000000 L
0P
b00000000000000000000000000000000 Q
b00000000000000000000000000000000 R
b00000000000000000000000000000000 S
0T
0U
0V
b00000000000000000000000000000000 W
b00000000000000000000000000000000 X
b00000000000000000000000000000000 Y
0Z
b00000000000000000000000000000000 D
b00000000000000000000000000000000 G
0O
b00000000000000000000000000000000 A
b00000000000000000000000000000000 E
b00000000000000000000000000000000 H
b00000000000000000000000000000000 B
b00000000000000000000000000000000 F
b00000000000000000000000000000000 I
0N
0?
1@
b00000000000000000000000000000000 C
0M
b00000000000000000000000000000000 [
#1
1?
#2
0?
#3
1?
#4
0?
#5
1?
#6
0?
#7
1?
#8
0?
#9
1?
#10
0?
0@
#11
1?
#12
0?
1@
#13
1?
#14
0?
0@
#15
1?
#16
0?
#17
1?
#18
0?
#19
1?
#20
0?
#21
1?
#22
0?
#23
1?
#24
15
17
19
b00000000000000000000000000001111 W
b00000000000000000000000000001100 X
b00000000000000000000000000001010 Y
b00000000000000000000000000001111 D
b00000000000000000000000000000011 G
b00000000000000000000000000001100 E
b00000000000000000000000000000011 H
b00000000000000000000000000001010 F
b00000000000000000000000000000011 I
0?
1M
#25
1?
#26
b00000000000000000000000000000011 4
05
b00000000000000000000000000000011 6
07
b00000000000000000000000000000011 8
1O
1N
0?
0M
#27
b00000000000000000000000000000110 8
b00000000000000000000000000000011 /
b00000000000000000000000000000011 >
b00000000000000000000000000000011 S
b00000000000000000000000000000011 Y
1?
#28
0?
#29
b00000000000000000000000000001001 8
b00000000000000000000000000000110 /
b00000000000000000000000000000110 >
b00000000000000000000000000000110 S
b00000000000000000000000000000110 Y
1?
#30
0?
#31
1)
10
17
b00000000000000000000000000000000 8
b00000000000000000000000000001001 /
b00000000000000000000000000001001 >
b00000000000000000000000000001001 S
b00000000000000000000000000001001 Y
1Z
1?
#32
0?
#33
0)
00
b00000000000000000000000000000110 6
07
b00000000000000000000000000000011 +
b00000000000000000000000000000011 8
b00000000000000000000000000000000 /
b00000000000000000000000000000011 =
b00000000000000000000000000000000 >
b00000000000000000000000000000011 R
b00000000000000000000000000000000 S
b00000000000000000000000000000011 X
b00000000000000000000000000001010 Y
1?
#34
0?
#35
b00000000000000000000000000000110 8
b00000000000000000000000000000011 /
b00000000000000000000000000000011 >
b00000000000000000000000000000011 S
b00000000000000000000000000000011 Y
0Z
1?
#36
0?
#37
b00000000000000000000000000001001 8
b00000000000000000000000000000110 /
b00000000000000000000000000000110 >
b00000000000000000000000000000110 S
b00000000000000000000000000000110 Y
1?
#38
0?
#39
1)
10
17
b00000000000000000000000000000000 8
b00000000000000000000000000001001 /
b00000000000000000000000000001001 >
b00000000000000000000000000001001 S
b00000000000000000000000000001001 Y
1Z
1?
#40
0?
#41
0)
00
b00000000000000000000000000001001 6
07
b00000000000000000000000000000110 +
b00000000000000000000000000000011 8
b00000000000000000000000000000000 /
b00000000000000000000000000000110 =
b00000000000000000000000000000000 >
b00000000000000000000000000000110 R
b00000000000000000000000000000000 S
b00000000000000000000000000000110 X
b00000000000000000000000000001010 Y
1?
#42
0?
#43
b00000000000000000000000000000110 8
b00000000000000000000000000000011 /
b00000000000000000000000000000011 >
b00000000000000000000000000000011 S
b00000000000000000000000000000011 Y
0Z
1?
#44
0?
#45
b00000000000000000000000000001001 8
b00000000000000000000000000000110 /
b00000000000000000000000000000110 >
b00000000000000000000000000000110 S
b00000000000000000000000000000110 Y
1?
#46
0?
#47
1)
10
17
b00000000000000000000000000000000 8
b00000000000000000000000000001001 /
b00000000000000000000000000001001 >
b00000000000000000000000000001001 S
b00000000000000000000000000001001 Y
1Z
1?
#48
0?
#49
1$
0)
00
b00000000000000000000000000000000 6
07
b00000000000000000000000000001001 +
b00000000000000000000000000000011 8
b00000000000000000000000000000000 /
b00000000000000000000000000001001 =
b00000000000000000000000000000000 >
b00000000000000000000000000001001 R
b00000000000000000000000000000000 S
b00000000000000000000000000001001 X
b00000000000000000000000000001010 Y
1?
#50
0?
#51
0$
b00000000000000000000000000000110 8
b00000000000000000000000000000011 /
b00000000000000000000000000000011 >
b00000000000000000000000000000011 S
b00000000000000000000000000000011 Y
0Z
1?
#52
0?
#53
b00000000000000000000000000001001 8
b00000000000000000000000000000110 /
b00000000000000000000000000000110 >
b00000000000000000000000000000110 S
b00000000000000000000000000000110 Y
1?
#54
0?
#55
1$
1%
1)
1,
10
15
17
b00000000000000000000000000000000 8
b00000000000000000000000000001001 /
b00000000000000000000000000001001 >
b00000000000000000000000000001001 S
b00000000000000000000000000001001 Y
1Z
1?
#56
0?
#57
0%
0)
0,
00
b00000000000000000000000000000110 4
05
b00000000000000000000000000000011 &
b00000000000000000000000000000011 6
07
b00000000000000000000000000000000 +
b00000000000000000000000000000011 8
b00000000000000000000000000000000 /
b00000000000000000000000000000011 <
b00000000000000000000000000000000 =
b00000000000000000000000000000000 >
b00000000000000000000000000000011 Q
b00000000000000000000000000000000 R
b00000000000000000000000000000000 S
b00000000000000000000000000000011 W
b00000000000000000000000000001100 X
b00000000000000000000000000001010 Y
1?
#58
0?
#59
0$
b00000000000000000000000000000110 8
b00000000000000000000000000000011 /
b00000000000000000000000000000011 >
b00000000000000000000000000000011 S
b00000000000000000000000000000011 Y
0Z
1?
#60
0?
#61
b00000000000000000000000000001001 8
b00000000000000000000000000000110 /
b00000000000000000000000000000110 >
b00000000000000000000000000000110 S
b00000000000000000000000000000110 Y
1?
#62
0?
#63
1)
10
17
b00000000000000000000000000000000 8
b00000000000000000000000000001001 /
b00000000000000000000000000001001 >
b00000000000000000000000000001001 S
b00000000000000000000000000001001 Y
1Z
1?
#64
0?
#65
0)
00
b00000000000000000000000000000110 6
07
b00000000000000000000000000000011 +
b00000000000000000000000000000011 8
b00000000000000000000000000000000 /
b00000000000000000000000000000011 =
b00000000000000000000000000000000 >
b00000000000000000000000000000011 R
b00000000000000000000000000000000 S
b00000000000000000000000000000011 X
b00000000000000000000000000001010 Y
1?
#66
b00000000000000000000000000000000 4
15
b00000000000000000000000000000000 &
b00000000000000000000000000000000 6
17
b00000000000000000000000000000000 +
b00000000000000000000000000000000 8
b00000000000000000000000000000000 Q
b00000000000000000000000000000000 R
b00000000000000000000000000001111 W
b00000000000000000000000000001100 X
0N
0?
1M
#67
b00000000000000000000000000000000 <
b00000000000000000000000000000000 =
0Z
1?
#68
0?
1@
#69
1?
#70
b00000000000000000000000000000011 4
05
b00000000000000000000000000000011 6
07
b00000000000000000000000000000011 8
09
0?
0@
0M
#71
1?
#72
0?
#73
1?
#74
0?
#75
1?
#76
0?
#77
1?
#78
0?
#79
1?
#80
b00000000000000000000000000000000 4
15
b00000000000000000000000000000000 6
17
b00000000000000000000000000000000 8
19
b00000000000000000000000000000001 G
b00000000000000000000000000000001 H
b00000000000000000000000000000001 I
0?
1M
#81
1?
#82
b00000000000000000000000000000001 4
05
b00000000000000000000000000000001 6
07
b00000000000000000000000000000001 8
1N
0?
0M
#83
b00000000000000000000000000000010 8
b00000000000000000000000000000001 /
b00000000000000000000000000000001 >
b00000000000000000000000000000001 S
b00000000000000000000000000000001 Y
1?
#84
0?
#85
b00000000000000000000000000000011 8
b00000000000000000000000000000010 /
b00000000000000000000000000000010 >
b00000000000000000000000000000010 S
b00000000000000000000000000000010 Y
1?
#86
0?
#87
b00000000000000000000000000000100 8
b00000000000000000000000000000011 /
b00000000000000000000000000000011 >
b00000000000000000000000000000011 S
b00000000000000000000000000000011 Y
1?
#88
0?
#89
b00000000000000000000000000000101 8
b00000000000000000000000000000100 /
b00000000000000000000000000000100 >
b00000000000000000000000000000100 S
b00000000000000000000000000000100 Y
1?
#90
0?
#91
b00000000000000000000000000000110 8
b00000000000000000000000000000101 /
b00000000000000000000000000000101 >
b00000000000000000000000000000101 S
b00000000000000000000000000000101 Y
1?
#92
0?
#93
b00000000000000000000000000000111 8
b00000000000000000000000000000110 /
b00000000000000000000000000000110 >
b00000000000000000000000000000110 S
b00000000000000000000000000000110 Y
1?
#94
0?
#95
b00000000000000000000000000001000 8
b00000000000000000000000000000111 /
b00000000000000000000000000000111 >
b00000000000000000000000000000111 S
b00000000000000000000000000000111 Y
1?
#96
0?
#97
b00000000000000000000000000001001 8
b00000000000000000000000000001000 /
b00000000000000000000000000001000 >
b00000000000000000000000000001000 S
b00000000000000000000000000001000 Y
1?
#98
0?
#99
1)
10
17
b00000000000000000000000000000000 8
b00000000000000000000000000001001 /
b00000000000000000000000000001001 >
b00000000000000000000000000001001 S
b00000000000000000000000000001001 Y
1Z
1?
#100
0?
#101
0)
00
b00000000000000000000000000000010 6
07
b00000000000000000000000000000001 +
b00000000000000000000000000000001 8
b00000000000000000000000000000000 /
b00000000000000000000000000000001 =
b00000000000000000000000000000000 >
b00000000000000000000000000000001 R
b00000000000000000000000000000000 S
b00000000000000000000000000000001 X
b00000000000000000000000000001010 Y
1?
#102
0?
#103
b00000000000000000000000000000010 8
b00000000000000000000000000000001 /
b00000000000000000000000000000001 >
b00000000000000000000000000000001 S
b00000000000000000000000000000001 Y
0Z
1?
#104
0?
#105
b00000000000000000000000000000011 8
b00000000000000000000000000000010 /
b00000000000000000000000000000010 >
b00000000000000000000000000000010 S
b00000000000000000000000000000010 Y
1?
#106
0?
#107
b00000000000000000000000000000100 8
b00000000000000000000000000000011 /
b00000000000000000000000000000011 >
b00000000000000000000000000000011 S
b00000000000000000000000000000011 Y
1?
#108
0?
#109
b00000000000000000000000000000101 8
b00000000000000000000000000000100 /
b00000000000000000000000000000100 >
b00000000000000000000000000000100 S
b00000000000000000000000000000100 Y
1?
#110
0?
#111
b00000000000000000000000000000110 8
b00000000000000000000000000000101 /
b00000000000000000000000000000101 >
b00000000000000000000000000000101 S
b00000000000000000000000000000101 Y
1?
#112
0?
#113
b00000000000000000000000000000111 8
b00000000000000000000000000000110 /
b00000000000000000000000000000110 >
b00000000000000000000000000000110 S
b00000000000000000000000000000110 Y
1?
#114
0?
#115
b00000000000000000000000000001000 8
b00000000000000000000000000000111 /
b00000000000000000000000000000111 >
b00000000000000000000000000000111 S
b00000000000000000000000000000111 Y
1?
#116
0?
#117
b00000000000000000000000000001001 8
b00000000000000000000000000001000 /
b00000000000000000000000000001000 >
b00000000000000000000000000001000 S
b00000000000000000000000000001000 Y
1?
#118
0?
#119
1)
10
17
b00000000000000000000000000000000 8
b00000000000000000000000000001001 /
b00000000000000000000000000001001 >
b00000000000000000000000000001001 S
b00000000000000000000000000001001 Y
1Z
1?
#120
0?
#121
0)
00
b00000000000000000000000000000011 6
07
b00000000000000000000000000000010 +
b00000000000000000000000000000001 8
b00000000000000000000000000000000 /
b00000000000000000000000000000010 =
b00000000000000000000000000000000 >
b00000000000000000000000000000010 R
b00000000000000000000000000000000 S
b00000000000000000000000000000010 X
b00000000000000000000000000001010 Y
1?
#122
b00000000000000000000000000000000 4
15
b00000000000000000000000000000000 6
17
b00000000000000000000000000000000 +
b00000000000000000000000000000000 8
b00000000000000000000000000000000 R
b00000000000000000000000000001100 X
0N
0?
1M
#123
b00000000000000000000000000000000 =
0Z
1?
#124
0?
1@
#125
1?
#126
b00000000000000000000000000000001 4
05
b00000000000000000000000000000001 6
07
b00000000000000000000000000000001 8
09
0?
0@
0M
#127
1?
#128
0?
#129
1?
#130
0?
#131
1?
#132
0?
#133
1?
#134
0?
#135
1?
#136
b00000000000000000000000000000000 4
15
b00000000000000000000000000000000 6
17
b00000000000000000000000000000000 8
19
b00000000000000000000000000000101 G
b00000000000000000000000000000100 H
b00000000000000000000000000000011 I
0?
1M
#137
1?
#138
b00000000000000000000000000000101 4
05
b00000000000000000000000000000100 6
07
b00000000000000000000000000000011 8
1N
0?
0M
#139
b00000000000000000000000000000110 8
b00000000000000000000000000000011 /
b00000000000000000000000000000011 >
b00000000000000000000000000000011 S
b00000000000000000000000000000011 Y
1?
#140
0?
#141
b00000000000000000000000000001001 8
b00000000000000000000000000000110 /
b00000000000000000000000000000110 >
b00000000000000000000000000000110 S
b00000000000000000000000000000110 Y
1?
#142
0?
#143
1)
10
17
b00000000000000000000000000000000 8
b00000000000000000000000000001001 /
b00000000000000000000000000001001 >
b00000000000000000000000000001001 S
b00000000000000000000000000001001 Y
1Z
1?
#144
0?
#145
0)
00
b00000000000000000000000000001000 6
07
b00000000000000000000000000000100 +
b00000000000000000000000000000011 8
b00000000000000000000000000000000 /
b00000000000000000000000000000100 =
b00000000000000000000000000000000 >
b00000000000000000000000000000100 R
b00000000000000000000000000000000 S
b00000000000000000000000000000100 X
b00000000000000000000000000001010 Y
1?
#146
0?
#147
b00000000000000000000000000000110 8
b00000000000000000000000000000011 /
b00000000000000000000000000000011 >
b00000000000000000000000000000011 S
b00000000000000000000000000000011 Y
0Z
1?
#148
0?
#149
b00000000000000000000000000001001 8
b00000000000000000000000000000110 /
b00000000000000000000000000000110 >
b00000000000000000000000000000110 S
b00000000000000000000000000000110 Y
1?
#150
0?
#151
1)
10
17
b00000000000000000000000000000000 8
b00000000000000000000000000001001 /
b00000000000000000000000000001001 >
b00000000000000000000000000001001 S
b00000000000000000000000000001001 Y
1Z
1?
#152
0?
#153
1$
0)
00
b00000000000000000000000000000000 6
07
b00000000000000000000000000001000 +
b00000000000000000000000000000011 8
b00000000000000000000000000000000 /
b00000000000000000000000000001000 =
b00000000000000000000000000000000 >
b00000000000000000000000000001000 R
b00000000000000000000000000000000 S
b00000000000000000000000000001000 X
b00000000000000000000000000001010 Y
1?
#154
0?
#155
0$
b00000000000000000000000000000110 8
b00000000000000000000000000000011 /
b00000000000000000000000000000011 >
b00000000000000000000000000000011 S
b00000000000000000000000000000011 Y
0Z
1?
#156
0?
#157
b00000000000000000000000000001001 8
b00000000000000000000000000000110 /
b00000000000000000000000000000110 >
b00000000000000000000000000000110 S
b00000000000000000000000000000110 Y
1?
#158
0?
#159
1$
1%
1)
1,
10
15
17
b00000000000000000000000000000000 8
b00000000000000000000000000001001 /
b00000000000000000000000000001001 >
b00000000000000000000000000001001 S
b00000000000000000000000000001001 Y
1Z
1?
#160
0?
#161
0%
0)
0,
00
b00000000000000000000000000001010 4
05
b00000000000000000000000000000101 &
b00000000000000000000000000000100 6
07
b00000000000000000000000000000000 +
b00000000000000000000000000000011 8
b00000000000000000000000000000000 /
b00000000000000000000000000000101 <
b00000000000000000000000000000000 =
b00000000000000000000000000000000 >
b00000000000000000000000000000101 Q
b00000000000000000000000000000000 R
b00000000000000000000000000000000 S
b00000000000000000000000000000101 W
b00000000000000000000000000001100 X
b00000000000000000000000000001010 Y
1?
#162
0?
#163
0$
b00000000000000000000000000000110 8
b00000000000000000000000000000011 /
b00000000000000000000000000000011 >
b00000000000000000000000000000011 S
b00000000000000000000000000000011 Y
0Z
1?
#164
0?
#165
b00000000000000000000000000001001 8
b00000000000000000000000000000110 /
b00000000000000000000000000000110 >
b00000000000000000000000000000110 S
b00000000000000000000000000000110 Y
1?
#166
0?
#167
1)
10
17
b00000000000000000000000000000000 8
b00000000000000000000000000001001 /
b00000000000000000000000000001001 >
b00000000000000000000000000001001 S
b00000000000000000000000000001001 Y
1Z
1?
#168
0?
#169
0)
00
b00000000000000000000000000001000 6
07
b00000000000000000000000000000100 +
b00000000000000000000000000000011 8
b00000000000000000000000000000000 /
b00000000000000000000000000000100 =
b00000000000000000000000000000000 >
b00000000000000000000000000000100 R
b00000000000000000000000000000000 S
b00000000000000000000000000000100 X
b00000000000000000000000000001010 Y
1?
#170
0?
#171
b00000000000000000000000000000110 8
b00000000000000000000000000000011 /
b00000000000000000000000000000011 >
b00000000000000000000000000000011 S
b00000000000000000000000000000011 Y
0Z
1?
#172
0?
#173
b00000000000000000000000000001001 8
b00000000000000000000000000000110 /
b00000000000000000000000000000110 >
b00000000000000000000000000000110 S
b00000000000000000000000000000110 Y
1?
#174
0?
#175
1)
10
17
b00000000000000000000000000000000 8
b00000000000000000000000000001001 /
b00000000000000000000000000001001 >
b00000000000000000000000000001001 S
b00000000000000000000000000001001 Y
1Z
1?
#176
0?
#177
1$
0)
00
b00000000000000000000000000000000 6
07
b00000000000000000000000000001000 +
b00000000000000000000000000000011 8
b00000000000000000000000000000000 /
b00000000000000000000000000001000 =
b00000000000000000000000000000000 >
b00000000000000000000000000001000 R
b00000000000000000000000000000000 S
b00000000000000000000000000001000 X
b00000000000000000000000000001010 Y
1?
#178
0$
b00000000000000000000000000000000 4
15
b00000000000000000000000000000000 &
17
b00000000000000000000000000000000 +
b00000000000000000000000000000000 8
b00000000000000000000000000000000 Q
b00000000000000000000000000000000 R
b00000000000000000000000000001111 W
b00000000000000000000000000001100 X
0N
0?
1M
#179
b00000000000000000000000000000000 <
b00000000000000000000000000000000 =
0Z
1?
#180
0?
1@
#181
1?
#182
b00000000000000000000000000000101 4
05
b00000000000000000000000000000100 6
07
b00000000000000000000000000000011 8
09
0?
0@
0M
#183
1?
#184
0?
#185
1?
#186
0?
#187
1?
#188
0?
#189
1?
#190
0?
#191
1?
#192
b00000000000000000000000000000000 4
15
b00000000000000000000000000000000 6
17
b00000000000000000000000000000000 8
19
b00000000000000000000000000010000 W
b00000000000000000000000000001101 X
b00000000000000000000000000001011 Y
b00000000000000000000000000010000 D
b00000000000000000000000000000011 G
b00000000000000000000000000001101 E
b00000000000000000000000000000011 H
b00000000000000000000000000001011 F
0?
1M
#193
1?
#194
b00000000000000000000000000000011 4
05
b00000000000000000000000000000011 6
07
b00000000000000000000000000000011 8
1N
0?
0M
#195
b00000000000000000000000000000110 8
b00000000000000000000000000000011 /
b00000000000000000000000000000011 >
b00000000000000000000000000000011 S
b00000000000000000000000000000011 Y
1?
#196
0?
#197
b00000000000000000000000000001001 8
b00000000000000000000000000000110 /
b00000000000000000000000000000110 >
b00000000000000000000000000000110 S
b00000000000000000000000000000110 Y
1?
#198
0?
#199
1)
10
17
b00000000000000000000000000000000 8
b00000000000000000000000000001001 /
b00000000000000000000000000001001 >
b00000000000000000000000000001001 S
b00000000000000000000000000001001 Y
1Z
1?
#200
0?
#201
0)
00
b00000000000000000000000000000110 6
07
b00000000000000000000000000000011 +
b00000000000000000000000000000011 8
b00000000000000000000000000000000 /
b00000000000000000000000000000011 =
b00000000000000000000000000000000 >
b00000000000000000000000000000011 R
b00000000000000000000000000000000 S
b00000000000000000000000000000011 X
b00000000000000000000000000001011 Y
1?
#202
0?
#203
b00000000000000000000000000000110 8
b00000000000000000000000000000011 /
b00000000000000000000000000000011 >
b00000000000000000000000000000011 S
b00000000000000000000000000000011 Y
0Z
1?
#204
0?
#205
b00000000000000000000000000001001 8
b00000000000000000000000000000110 /
b00000000000000000000000000000110 >
b00000000000000000000000000000110 S
b00000000000000000000000000000110 Y
1?
#206
0?
#207
1)
10
17
b00000000000000000000000000000000 8
b00000000000000000000000000001001 /
b00000000000000000000000000001001 >
b00000000000000000000000000001001 S
b00000000000000000000000000001001 Y
1Z
1?
#208
0?
#209
0)
00
b00000000000000000000000000001001 6
07
b00000000000000000000000000000110 +
b00000000000000000000000000000011 8
b00000000000000000000000000000000 /
b00000000000000000000000000000110 =
b00000000000000000000000000000000 >
b00000000000000000000000000000110 R
b00000000000000000000000000000000 S
b00000000000000000000000000000110 X
b00000000000000000000000000001011 Y
1?
#210
0?
#211
b00000000000000000000000000000110 8
b00000000000000000000000000000011 /
b00000000000000000000000000000011 >
b00000000000000000000000000000011 S
b00000000000000000000000000000011 Y
0Z
1?
#212
0?
#213
b00000000000000000000000000001001 8
b00000000000000000000000000000110 /
b00000000000000000000000000000110 >
b00000000000000000000000000000110 S
b00000000000000000000000000000110 Y
1?
#214
0?
#215
1)
10
17
b00000000000000000000000000000000 8
b00000000000000000000000000001001 /
b00000000000000000000000000001001 >
b00000000000000000000000000001001 S
b00000000000000000000000000001001 Y
1Z
1?
#216
0?
#217
0)
00
b00000000000000000000000000001100 6
07
b00000000000000000000000000001001 +
b00000000000000000000000000000011 8
b00000000000000000000000000000000 /
b00000000000000000000000000001001 =
b00000000000000000000000000000000 >
b00000000000000000000000000001001 R
b00000000000000000000000000000000 S
b00000000000000000000000000001001 X
b00000000000000000000000000001011 Y
1?
#218
0?
#219
b00000000000000000000000000000110 8
b00000000000000000000000000000011 /
b00000000000000000000000000000011 >
b00000000000000000000000000000011 S
b00000000000000000000000000000011 Y
0Z
1?
#220
0?
#221
b00000000000000000000000000001001 8
b00000000000000000000000000000110 /
b00000000000000000000000000000110 >
b00000000000000000000000000000110 S
b00000000000000000000000000000110 Y
1?
#222
0?
